"Taxons";"Agapetus";"Agraylea";"Agrypnia";"Athripsodes";"Ceraclea";"Cyrnus";"Glossosoma";"Glyphotaelius";"Goera";"Grammotaulius";"Hydropsyche";"Hydroptila";"Lepidostoma";"Leptocerus";"Limnephilus";"Lype";"Mesophylax";"Mystacides";"Oecetis";"Orthotrichia";"Oxyethira";"Phryganea";"Potamophylax";"Psychomyia";"Rhyacophila";"Sericostoma";"Setodes";"Silo";"Tinodes";"Trichostegia"
"BEAR.AV";1;1;0;1;1;0;1;1;1;0;1;1;0;1;1;1;1;1;0;1;0;0;0;1;1;1;1;1;0;0
"CHAN.AV";1;1;0;1;1;1;0;0;1;0;1;1;1;0;0;1;0;1;1;0;0;1;0;1;1;1;0;1;1;1
"FOUR.AV";1;1;0;1;1;0;1;1;1;0;1;1;0;0;0;1;1;1;1;0;0;1;0;1;1;0;1;1;1;0
"LUCE.AM";1;1;0;1;1;0;1;1;0;0;1;1;0;0;0;0;0;1;1;0;0;0;0;1;1;0;1;0;0;0
"LUIS.AV";0;1;1;1;1;0;0;1;1;0;1;1;0;0;1;0;1;1;1;0;0;0;1;1;1;0;1;1;1;0
"MOIR.AmN";0;1;0;1;1;0;0;1;0;1;1;1;0;0;1;0;0;1;1;0;0;1;0;1;1;1;1;0;0;0
"RHONE";1;1;1;1;1;0;1;0;1;0;1;1;0;0;0;0;0;1;1;1;1;1;0;1;1;0;1;1;0;0
