"Taxons";"Comp1";"Comp2";"Comp3"
"Agapetus";-0.717;0.049;0.565
"Trichostegia";-0.808;0.057;0.955
"Chaetopteryx";0.055;0.112;-0.126
"Neureclipsis";0.088;0.049;0.252
"Polycentropus";0.361;0.01;0.394
"Pseudopsilopteryx";-0.535;0.035;-0.214
