"BEAR.AV.P0" "BEAR.AV.P1" "BEAR.AV.P2" "BEAR.AV.P3" "BEAR.AV.P4" "BEAR.AV.P5" "BEAR.AV.P6" "CHAN.AV.P0" "CHAN.AV.P1" "CHAN.AV.P2" "CHAN.AV.P3" "CHAN.AV.P4" "CHAN.AV.P5" "CHAN.AV.P6" "FOUR.AV.P0" "FOUR.AV.P1" "FOUR.AV.P2" "FOUR.AV.P3" "FOUR.AV.P4" "FOUR.AV.P5" "FOUR.AV.P6" "LUCE.AM.P0" "LUCE.AM.P1" "LUCE.AM.P2" "LUCE.AM.P3" "LUCE.AM.P4" "LUCE.AM.P5" "LUCE.AM.P6" "LUIS.AV.P0" "LUIS.AV.P1" "LUIS.AV.P2" "LUIS.AV.P3" "LUIS.AV.P4" "LUIS.AV.P5" "LUIS.AV.P6" "MOIR.AmN.P0" "MOIR.AmN.P1" "MOIR.AmN.P2" "MOIR.AmN.P3" "MOIR.AmN.P4" "MOIR.AmN.P5" "MOIR.AmN.P6" "RHONE.P0" "RHONE.P1" "RHONE.P2" "RHONE.P3" "RHONE.P4" "RHONE.P5" "RHONE.P6"
"Rhyacophila.fasciata" 1 0 0 0 0 0 0 0 0 0 0 0 0 0 0 0 0 0 0 0 0 0 0 0 0 0 0 0 0 0 0 0 0 0 0 0 0 0 0 0 0 0 0 0 0 0 0 0 0
"Mesophylax.impunctatus" 0 0 2 0 0 0 0 0 0 0 0 0 0 0 1 4 1 3 0 0 0 0 0 0 0 0 0 0 0 0 1 0 0 0 0 0 0 0 0 0 0 0 0 0 0 0 0 0 0
"Glossosoma.boltoni" 0 0 1 1 6 0 0 0 0 0 0 0 0 0 0 0 2 0 54 0 1 0 2 4 0 47 0 0 0 0 0 0 0 0 0 0 0 0 0 0 0 0 0 1 0 0 17 8 0
"Silo.nigricornis" 0 1 0 2 7 0 1 0 0 3 0 0 0 0 0 0 0 1 0 0 0 0 0 0 0 0 0 0 0 1 0 1 0 0 0 0 0 0 0 0 0 0 0 0 5 0 1 0 6
"Lype.phaeopa" 0 0 0 0 0 0 0 0 0 3 0 3 0 5 0 0 0 0 0 0 1 0 0 0 0 0 0 0 0 0 0 0 0 0 0 0 0 0 0 0 0 0 0 0 0 0 0 0 0
"Agapetus.ochripes" 0 0 0 0 0 0 2 0 0 0 1 2 41 2 0 0 0 3 0 12 39 0 0 0 7 0 13 5 0 0 0 0 0 0 0 0 0 0 0 0 0 0 0 0 0 0 0 9 0
"Ceraclea.dissimilis" 0 0 0 0 20 0 0 0 0 0 0 38 0 0 0 0 0 0 13 0 0 0 0 0 14 101 2 1 0 0 0 10 50 2 0 0 0 0 1 2 0 0 0 0 0 0 610 1 0
"Goera.pilosa" 0 0 0 0 7 1 0 0 0 0 0 52 4 1 0 0 0 8 7 16 2 0 0 0 0 0 0 0 0 0 0 0 2 3 1 0 0 0 0 0 0 0 0 0 0 2 6 0 7
"Hydropsyche.contubernalis" 0 0 0 0 19 0 0 0 0 0 6 86 1 2 0 0 0 0 16 1 0 0 0 0 0 30 4 1 0 0 0 0 7 1 0 0 0 0 0 10 2 0 0 0 0 20 105 5 11
"Hydropsyche.siltalai" 0 0 0 1 3 0 0 0 0 0 0 7 0 0 0 0 0 0 29 2 0 0 0 0 0 38 2 1 0 0 0 0 1 0 0 0 0 0 2 1 0 0 0 0 0 0 0 0 0
"Hydroptila.angulata" 0 0 0 0 29 0 1 0 0 0 1 52 0 0 0 0 0 0 295 0 0 0 0 0 0 123 0 0 0 0 0 3 3 0 0 0 0 0 0 9 0 0 0 0 0 9 124 0 0
"Hydroptila.forcipata" 0 0 0 0 0 0 0 0 0 0 0 2 0 0 0 0 0 1 9 1 0 0 0 0 2 2 2 0 0 0 0 0 0 0 0 0 0 0 0 0 0 0 0 0 0 1 0 0 0
"Hydroptila.sparsa" 0 0 0 5 0 0 0 0 0 0 14 0 1 0 0 0 0 2 13 2 1 0 0 0 23 9 1 2 0 0 0 21 0 0 0 0 0 0 1 0 0 0 0 0 0 25 12 10 0
"Mystacides.azurea" 0 0 0 0 0 1 1 0 0 0 0 0 2 1 0 0 0 1 3 2 48 0 0 0 0 0 9 2 0 0 0 4 0 0 2 0 0 0 0 0 2 0 0 0 0 0 0 1 0
"Psychomyia.pusilla" 0 0 0 10 29 1 1 0 0 0 65 1038 9 2 0 0 0 4 59 4 1 0 0 0 17 99 0 2 0 0 0 29 38 2 0 0 0 0 15 16 4 0 0 0 0 67 1646 81 8
"Rhyacophila.dorsalis" 0 0 0 1 6 2 6 0 0 0 0 2 0 2 0 0 0 1 3 2 1 0 0 0 2 9 1 6 0 0 0 0 6 0 2 0 0 0 2 5 0 7 0 0 0 0 0 0 2
"Tinodes.waeneri" 0 0 0 0 0 0 0 0 0 0 0 1 0 0 0 0 0 0 0 0 1 0 0 0 0 0 0 0 0 0 0 1 0 0 0 0 0 0 0 0 0 0 0 0 0 0 0 0 0
"Oxyethira.flavicornis" 0 0 0 0 0 0 0 0 0 0 0 0 0 0 0 0 0 0 0 0 0 0 0 0 0 0 0 0 0 0 0 0 0 0 0 0 0 0 0 0 0 0 0 0 0 4 2 0 0
"Phryganea.bipunctata" 0 0 0 0 0 0 0 0 0 0 0 0 0 0 0 0 0 0 0 0 0 0 0 0 0 0 0 0 0 0 0 0 0 0 0 0 0 0 1 0 0 0 0 0 0 0 0 0 0
"Lype.reducta" 0 0 0 0 1 0 0 0 0 0 0 0 0 0 0 0 0 0 0 0 0 0 0 0 0 0 0 0 0 0 0 0 0 0 0 0 0 0 0 0 0 0 0 0 0 0 0 0 0
"Sericostoma.galeatum" 0 0 0 0 1 0 0 0 0 0 0 2 0 0 0 0 0 0 0 0 0 0 0 0 0 0 0 0 0 0 0 0 0 0 0 0 0 0 0 1 0 0 0 0 0 0 0 0 0
"Setodes.punctatus" 0 0 0 0 4 0 0 0 0 0 0 0 0 0 0 0 0 0 12 0 0 0 0 0 0 2 0 0 0 0 0 0 1 1 0 0 0 0 0 1 0 0 0 0 0 0 14 0 0
"Agraylea.sexmaculata" 0 0 0 0 102 2 0 0 0 0 0 61 0 0 0 0 0 0 17 0 0 0 0 0 0 23 0 0 0 0 0 0 62 7 1 0 0 0 0 7 2 0 0 0 0 0 57 4 0
"Athripsodes.cinereus" 0 0 0 0 0 0 0 0 0 0 0 54 4 15 0 0 0 0 17 7 6 0 0 0 0 0 0 0 0 0 0 0 0 0 0 0 0 0 0 0 0 0 0 0 0 0 17 0 6
"Ceraclea.aurea" 0 0 0 0 0 0 0 0 0 0 0 5 1 0 0 0 0 0 1 0 0 0 0 0 0 3 0 0 0 0 0 0 0 1 0 0 0 0 0 4 0 0 0 0 0 0 62 9 8
"Hydropsyche.exocellata" 0 0 0 0 16 2 1 0 0 0 0 1 2 0 0 0 0 0 1 0 1 0 0 0 0 12 2 0 0 0 0 0 0 0 0 0 0 0 0 3 0 0 0 0 0 0 61 1 15
"Oecetis.notata" 0 0 0 0 0 0 0 0 0 0 0 10 0 0 0 0 0 0 2 0 0 0 0 0 0 4 2 0 0 0 0 0 1 0 0 0 0 0 0 2 0 0 0 0 0 0 8 0 3
"Ceraclea.albimacula" 0 0 0 0 2 0 0 0 0 0 0 5 2 0 0 0 0 0 0 0 0 0 0 0 0 2 0 0 0 0 0 0 7 0 0 0 0 0 0 0 0 0 0 0 0 0 14 0 0
"Hydroptila.vectis" 0 0 0 0 1 0 0 0 0 0 0 0 0 0 0 0 0 0 3 0 0 0 0 0 0 1 1 0 0 0 0 0 0 0 0 0 0 0 0 0 0 0 0 0 0 0 0 0 0
"Phryganea.grandis" 0 0 0 0 0 0 0 0 0 0 0 1 0 0 0 0 0 0 1 1 0 0 0 0 0 0 0 0 0 0 0 0 0 0 0 0 0 0 0 1 0 0 0 0 0 0 1 1 0
"Agraylea.multipunctata" 0 0 0 0 0 0 0 0 0 0 0 0 0 0 0 0 0 0 0 0 0 0 0 0 0 0 0 0 0 0 0 0 0 0 0 0 0 0 0 0 0 0 0 0 0 0 1 0 1
"Athripsodes.albifrons" 0 0 0 0 46 0 0 0 0 0 0 1 0 0 0 0 0 0 2 0 0 0 0 0 0 52 0 0 0 0 0 0 1 0 0 0 0 0 0 0 0 0 0 0 0 0 19 0 0
"Athripsodes.aterrimus" 0 0 0 0 6 0 0 0 0 0 0 0 0 0 0 0 0 0 1 0 0 0 0 0 0 0 0 0 0 0 0 0 1 0 0 0 0 0 0 1 0 0 0 0 0 0 1 0 0
"Cyrnus.crenaticornis" 0 0 0 0 0 0 0 0 0 0 0 3 0 0 0 0 0 0 0 0 0 0 0 0 0 0 0 0 0 0 0 0 0 0 0 0 0 0 0 0 0 0 0 0 0 0 0 0 0
"Hydropsyche.modesta" 0 0 0 0 1 0 0 0 0 0 0 0 0 0 0 0 0 0 0 0 0 0 0 0 0 0 0 0 0 0 0 0 0 0 0 0 0 0 0 1 0 0 0 0 0 0 0 0 0
"Hydropsyche.pellucidula" 0 0 0 0 0 0 0 0 0 0 0 0 0 0 0 0 0 0 0 0 0 0 0 0 0 2 0 0 0 0 0 0 0 0 0 0 0 0 0 1 0 0 0 0 0 0 0 0 0
"Lepidostoma.hirtum" 0 0 0 0 0 0 0 0 0 0 0 2 0 0 0 0 0 0 0 0 0 0 0 0 0 0 0 0 0 0 0 0 0 0 0 0 0 0 0 0 0 0 0 0 0 0 0 0 0
"Leptocerus.tineiformis" 0 0 0 0 2 0 0 0 0 0 0 0 0 0 0 0 0 0 0 0 0 0 0 0 0 0 0 0 0 0 0 0 0 0 0 0 0 0 0 0 0 0 0 0 0 0 0 0 0
"Mystacides.longicornis" 0 0 0 0 59 0 0 0 0 0 0 1 0 0 0 0 0 0 0 0 0 0 0 0 0 0 0 0 0 0 0 0 0 0 0 0 0 0 0 0 0 0 0 0 0 0 2 0 0
"Oecetis.lacustris" 0 0 0 0 0 0 0 0 0 0 0 3 0 0 0 0 0 0 0 0 0 0 0 0 0 0 0 0 0 0 0 0 0 0 0 0 0 0 0 0 0 0 0 0 0 0 0 0 0
"Orthotrichia.costalis" 0 0 0 0 1 0 0 0 0 0 0 0 0 0 0 0 0 0 0 0 0 0 0 0 0 0 0 0 0 0 0 0 0 0 0 0 0 0 0 0 0 0 0 0 0 0 2 0 0
"Trichostegia.minor" 0 0 0 0 0 0 0 0 0 0 0 3 0 0 0 0 0 0 0 0 0 0 0 0 0 0 0 0 0 0 0 0 0 0 0 0 0 0 0 0 0 0 0 0 0 0 0 0 0
"Hydropsyche.incognita" 0 0 0 0 0 0 0 0 0 0 0 0 1 0 0 0 0 0 0 0 0 0 0 0 0 0 0 0 0 0 0 0 0 0 0 0 0 0 0 0 0 2 0 0 0 0 0 0 0
"Limnephilus.rhombicus" 0 0 0 0 0 0 1 0 0 0 0 0 0 0 0 0 0 0 0 0 0 0 0 0 0 0 0 0 0 0 0 0 0 0 0 0 0 0 0 0 1 0 0 0 0 0 0 0 0
"Potamophylax.latipennis" 0 0 0 0 0 0 0 0 0 0 0 0 0 0 0 0 0 0 0 0 0 0 0 0 0 0 0 0 0 0 0 0 0 1 0 0 0 0 0 0 0 0 0 0 0 0 0 0 0
"Agrypnia.varia" 0 0 0 0 0 0 0 0 0 0 0 0 0 0 0 0 0 0 0 0 0 0 0 0 0 0 0 0 0 0 0 0 0 0 2 0 0 0 0 0 0 0 0 0 0 0 0 0 1
"Glyphotaelius.pellucidus" 0 0 0 0 0 0 7 0 0 0 0 0 0 0 0 0 0 0 0 0 2 0 0 0 0 0 0 2 0 0 0 0 0 0 4 0 0 0 0 0 0 3 0 0 0 0 0 0 0
"Grammotaulius.nigropunctatus" 0 0 0 0 0 0 0 0 0 0 0 0 0 0 0 0 0 0 0 0 0 0 0 0 0 0 0 0 0 0 0 0 0 0 0 0 0 0 0 0 0 1 0 0 0 0 0 0 0
"Limnephilus.lunatus" 0 0 0 0 0 0 1 0 0 0 0 0 0 0 0 0 0 0 0 0 0 0 0 0 0 0 0 0 0 0 0 0 0 0 3 0 0 0 0 0 0 1 0 0 0 0 0 0 0
