"BEAR.AV" "CHAN.AV" "FOUR.AV" "LUCE.AM" "LUIS.AV" "MOIR.AmN" "RHONE"
"Agapetus.ochripes" 2 46 54 25 0 0 9
"Agraylea.multipunctata" 0 0 0 0 0 0 2
"Agraylea.sexmaculata" 104 61 17 23 70 9 61
"Agrypnia.varia" 0 0 0 0 2 0 1
"Athripsodes.albifrons" 46 1 2 52 1 0 19
"Athripsodes.aterrimus" 6 0 1 0 1 1 1
"Athripsodes.cinereus" 0 73 30 0 0 0 23
"Ceraclea.albimacula" 2 7 0 2 7 0 14
"Ceraclea.aurea" 0 6 1 3 1 4 79
"Ceraclea.dissimilis" 20 38 13 118 62 3 611
"Cyrnus.crenaticornis" 0 3 0 0 0 0 0
"Goera.pilosa" 8 57 33 0 6 0 15
"Glossosoma.boltoni" 8 0 57 53 0 0 26
"Glyphotaelius.pellucidus" 7 0 2 2 4 3 0
"Grammotaulius.nigropunctatus" 0 0 0 0 0 1 0
"Hydropsyche.contubernalis" 19 95 17 35 8 12 141
"Hydropsyche.incognita" 0 1 0 0 0 2 0
"Hydropsyche.exocellata" 19 3 2 14 0 3 77
"Hydropsyche.modesta" 1 0 0 0 0 1 0
"Hydropsyche.pellucidula" 0 0 0 2 0 1 0
"Hydropsyche.siltalai" 4 7 31 41 1 3 0
"Hydroptila.angulata" 30 53 295 123 6 9 133
"Hydroptila.forcipata" 0 2 11 6 0 0 1
"Hydroptila.sparsa" 5 15 18 35 21 1 47
"Hydroptila.vectis" 1 0 3 2 0 0 0
"Lepidostoma.hirtum" 0 2 0 0 0 0 0
"Leptocerus.tineiformis" 2 0 0 0 0 0 0
"Limnephilus.lunatus" 1 0 0 0 3 1 0
"Limnephilus.rhombicus" 1 0 0 0 0 1 0
"Lype.phaeopa" 0 11 1 0 0 0 0
"Lype.reducta" 1 0 0 0 0 0 0
"Mesophylax.impunctatus" 2 0 9 0 1 0 0
"Mystacides.azurea" 2 3 54 11 6 2 1
"Mystacides.longicornis" 59 1 0 0 0 0 2
"Oecetis.notata" 0 10 2 6 1 2 11
"Oecetis.lacustris" 0 3 0 0 0 0 0
"Orthotrichia.costalis" 1 0 0 0 0 0 2
"Oxyethira.flavicornis" 0 0 0 0 0 0 6
"Phryganea.grandis" 0 1 2 0 0 1 2
"Phryganea.bipunctata" 0 0 0 0 0 1 0
"Potamophylax.latipennis" 0 0 0 0 1 0 0
"Psychomyia.pusilla" 41 1114 68 118 69 35 1802
"Rhyacophila.dorsalis" 15 4 7 18 8 14 2
"Rhyacophila.fasciata" 1 0 0 0 0 0 0
"Sericostoma.galeatum" 1 2 0 0 0 1 0
"Setodes.punctatus" 4 0 12 2 2 1 14
"Silo.nigricornis" 11 3 1 0 2 0 12
"Trichostegia.minor" 0 3 0 0 0 0 0
"Tinodes.waeneri" 0 1 1 0 1 0 0
