"Belley_adul.2014";"Lyon_adul.59_82";"Jons_adul.75_82"
"Agapetus ochripes";1;0;0
"Agraylea multipunctata";1;0;1
"Agraylea sexmaculata";1;1;1
"Agrypnia varia";1;0;0
"Athripsodes albifrons";1;1;0
"Athripsodes aterrimus";1;0;1
"Athripsodes cinereus";1;1;0
"Ceraclea albimacula";1;1;1
"Ceraclea aurea";1;1;1
"Ceraclea dissimilis";1;1;1
"Cyrnus crenaticornis";1;0;0
"Goera pilosa";1;1;0
"Glossosoma boltoni";1;1;0
"Glyphotaelius pellucidus";1;0;0
"Grammotaulius nigropunctatus";1;0;0
"Hydropsyche contubernalis";1;1;1
"Hydropsyche incognita";1;0;0
"Hydropsyche exocellata";1;1;1
"Hydropsyche modesta";1;1;1
"Hydropsyche pellucidula";1;1;1
"Hydropsyche siltalai";1;1;1
"Hydroptila angulata";1;1;1
"Hydroptila forcipata";1;1;1
"Hydroptila sparsa";1;1;1
"Hydroptila vectis";1;1;1
"Lepidostoma hirtum";1;1;1
"Leptocerus tineiformis";1;1;0
"Limnephilus lunatus";1;0;0
"Limnephilus rhombicus";1;0;0
"Lype phaeopa";1;1;1
"Lype reducta";1;0;0
"Mesophylax impunctatus";1;0;0
"Mystacides azurea";1;1;0
"Mystacides longicornis";1;1;0
"Oecetis notata";1;1;1
"Oecetis lacustris";1;1;1
"Orthotrichia costalis";1;1;1
"Oxyethira flavicornis";1;1;0
"Phryganea grandis";1;0;0
"Phryganea bipunctata";1;0;0
"Potamophylax latipennis";1;0;0
"Psychomyia pusilla";1;1;1
"Rhyacophila dorsalis";1;1;1
"Rhyacophila fasciata";1;0;0
"Sericostoma galeatum";1;0;0
"Setodes punctatus";1;1;1
"Silo nigricornis";1;0;0
"Trichostegia minor";1;0;0
"Tinodes waeneri";1;0;1
"Agapetus laniger";0;1;0
"Allotrichia pallicornis";0;1;0
"Brachycentrus subnubilus";0;1;0
"Ceraclea annulicornis";0;1;0
"Ceraclea fulva";0;1;0
"Ceraclea leucophaea";0;1;0
"Ceraclea nigronervosa";0;1;0
"Ceraclea riparia";0;1;0
"Ceraclea senilis";0;1;0
"Cheumatopsyche lepida";0;1;1
"Cyrnus trimaculatus";0;1;1
"Ecnomus tenellus";0;1;1
"Glossosoma conformis";0;1;0
"Hydropsyche ornatula";0;1;1
"Hydroptila lotensis";0;1;0
"Hydroptila occulta";0;1;0
"Hydroptila pulchricornis";0;1;1
"Hydroptila simulans";0;1;1
"Hydroptila tineoides";0;1;0
"Ithytrichia lamellaris";0;1;0
"Leptocerus lusitanicus";0;1;0
"Limnephilus auricula";0;1;0
"Limnephilus vittatus";0;1;0
"Metalype fragilis";0;1;1
"Micropterna testacea";0;1;0
"Mystacides nigra";0;1;0
"Neureclipsis bimaculata";0;1;1
"Oecetis tripunctata";0;1;0
"Oligoplectrum maculatum";0;1;0
"Orthotrichia angustella";0;1;0
"Polycentropus flavomaculatus";0;1;1
"Rhyacophila pascoei";0;1;1
"Sericostoma personatum";0;1;0
"Setodes argentipunctellus";0;1;0
"Stactobiella risi";0;1;0
"Stenophylax permistus";0;1;0
"Agrypnia pagetana";0;0;1
"Cyrnus flavidus";0;0;1
"Hydropsyche angustipennis";0;0;1
"Limnephilus germanus";0;0;1
"Oecetis furva";0;0;1
"Oxyethira frici";0;0;1
"Oxyethira tristella";0;0;1
"Polycentropus irroratus";0;0;1
"Tinodes dives";0;0;1
