"Taxons";"Belley_adul.2014";"Belley_larv.2003_2014";"Bregnier_larv.2003_2014";"Belley_larv.2014";"Bregnier_larv.81_85";"Miribel_adul.2014";"Ain&Savoie_larv.2015";"Lyon_adul.59_82";"Jons_adul.75_82";"Jons_larv.83";"Bas.Cours.Ain_larv.83"
"Agapetus";1;1;1;0;0;0;1;1;1;0;0
"Agraylea";1;1;1;0;1;1;0;1;1;1;1
"Agrypnia";1;1;1;0;0;1;0;0;1;1;1
"Athripsodes";1;1;1;1;0;1;1;1;1;1;1
"Ceraclea";1;1;0;0;0;1;1;1;1;1;0
"Cyrnus";1;1;1;0;0;1;0;1;1;1;1
"Goera";1;1;1;1;0;1;0;1;0;0;0
"Glossosoma";1;1;0;1;0;1;0;1;0;0;0
"Glyphotaelius";1;1;1;1;1;1;0;0;0;1;1
"Grammotaulius";1;0;0;0;0;0;0;0;0;0;0
"Hydropsyche";1;1;1;1;0;1;1;1;1;1;0
"Hydroptila";1;1;1;0;0;1;1;1;1;1;1
"Lepidostoma";1;0;0;0;0;1;0;1;1;1;1
"Leptocerus";1;1;1;0;1;1;1;1;1;1;0
"Limnephilus";1;1;1;1;1;1;1;1;1;1;1
"Lype";1;1;1;0;0;1;0;1;1;1;0
"Mesophylax";1;1;0;1;0;0;0;0;0;0;0
"Mystacides";1;1;1;1;0;1;1;1;1;1;1
"Oecetis";1;1;1;0;1;1;1;1;1;1;1
"Orthotrichia";1;1;1;0;0;1;0;1;1;1;0
"Phryganea";1;1;1;0;1;0;1;0;1;1;1
"Potamophylax";1;0;0;0;0;0;1;0;0;0;0
"Psychomyia";1;1;1;1;0;1;1;1;1;1;0
"Rhyacophila";1;1;1;1;1;1;1;1;1;1;0
"Sericostoma";1;1;0;1;0;1;1;1;1;1;1
"Setodes";1;0;0;0;0;1;0;1;1;1;1
"Silo";1;1;1;1;0;1;1;0;0;1;0
"Trichostegia";1;0;1;0;0;1;0;0;0;0;0
"Tinodes";1;1;0;1;0;1;1;1;1;1;0
"Anabolia";0;1;1;1;1;1;0;0;0;1;1
"Beraeodes";0;1;0;1;0;0;0;0;0;1;0
"Chaetopteryx";0;1;1;1;0;0;0;0;0;1;1
"Halesus";0;1;1;1;1;1;1;0;0;1;0
"Holocentropus";0;1;1;0;1;0;0;0;1;1;1
"Micropterna";0;1;1;0;0;1;0;1;1;0;0
"Neureclipsis";0;1;1;0;0;0;0;1;1;1;0
"Oxyethira";0;1;1;0;1;1;0;1;1;1;1
"Plectrocnemia";0;1;0;0;0;0;1;0;1;1;1
"Polycentropus";0;1;1;0;0;1;1;1;1;1;1
"Pseudopsilopteryx";0;1;0;0;0;0;0;0;0;0;0
"Odontocerum";0;0;1;0;0;0;1;0;0;0;0
"Stactobia";0;0;1;0;0;0;0;0;0;0;0
"Atripsodes";0;0;0;0;1;0;0;0;0;0;0
"Cheumatopsyche";0;0;0;0;0;1;1;1;1;1;0
"Ecnomus";0;0;0;0;0;1;0;1;1;1;0
"Paduniella";0;0;0;0;0;1;0;0;0;0;0
"Stenophylax";0;0;0;0;0;1;0;1;0;0;0
"Synagapetus";0;0;0;0;0;1;0;0;0;1;0
"Allotrichia";0;0;0;0;0;0;0;1;1;0;0
"Brachycentrus";0;0;0;0;0;0;0;1;0;0;0
"Chimarrha";0;0;0;0;0;0;0;1;0;0;0
"Ithytrichia";0;0;0;0;0;0;0;1;1;1;0
"Metalype";0;0;0;0;0;0;1;1;0;1;0
"Oligoplectrum";0;0;0;0;0;0;0;1;0;0;0
"Stactobiella";0;0;0;0;0;0;0;1;0;0;0
"Crunoecia";0;0;0;0;0;0;1;0;1;0;0
"Erotesis";0;0;0;0;0;0;0;0;1;1;0
"Triaenodes";0;0;0;0;0;0;0;0;1;0;0
"Adicella";0;0;0;0;0;0;0;0;0;1;0
"Bearea";0;0;0;0;0;0;0;0;0;1;1
"Trianodes";0;0;0;0;0;0;0;0;0;1;1
"Drusus";0;0;0;0;0;0;1;0;0;0;0
"Ernodes";0;0;0;0;0;0;1;0;0;0;0
"Melampophylax";0;0;0;0;0;0;1;0;0;0;0
"Metanoea";0;0;0;0;0;0;1;0;0;0;0
"Philopotamus";0;0;0;0;0;0;1;0;0;0;0
"Wormaldia";0;0;0;0;0;0;1;0;0;0;0
"Acrophylax";0;0;0;0;0;0;1;0;0;0;0
"Allogamus";0;0;0;0;0;0;1;0;0;0;0
"Alpopsyche";0;0;0;0;0;0;1;0;0;0;0
"Apatania";0;0;0;0;0;0;1;0;0;0;0
"Beraea";0;0;0;0;0;0;1;0;0;0;0
"Cryptothrix";0;0;0;0;0;0;1;0;0;0;0
"Enoicyla";0;0;0;0;0;0;1;0;0;0;0
"Monocentra";0;0;0;0;0;0;1;0;0;0;0
"Ptilocolepus";0;0;0;0;0;0;1;0;0;0;0
