"Taxons";"limnobionte";"limnophile";"limno.to.rheophile";"rheo.to.limnophile";"rheophile";"rheobionte";"indifferent";"xenosaprobe";"oligosaprobe";"beta.mesosaprobe";"alpha.mesosaprobe";"polysaprobe";"brouteur";"xylophage";"broyeur";"collecteur";"filtreur";"predateur";"Other";"winter";"spring";"summer";"autumn";"short.duration";"long.duration";"Belley_adul.2014";"Belley_larv.2003_2014";"Bregnier_larv.2003_2014";"Miribel_adul.2014";"Ain&Savoie_adul.2015";"Lyon_adul.59_82";"Jons_adul.75_82";"Jons_larv.83";"Bregnier_larv.81_85";"Bas.Cours.Ain_larv.83";"Belley_larv.2014"
"Acrophylax zerberus";0;0;0;0;0;0;1;5;5;0;0;0;2;0;6;0;0;2;0;0;8;2;0;1;0;0;0;0;0;1;0;0;0;0;0;0
"Adicella reducta";0;0;0;1;0;0;0;0;5;5;0;0;2;0;8;0;0;0;0;0;3;7;0;1;0;0;0;0;0;0;0;0;1;0;0;0
"Agapetus fuscipes";0;0;0;0;1;0;0;4;5;1;0;0;8;0;0;2;0;0;0;0;3;4;3;0;1;0;1;1;0;1;0;0;0;0;0;0
"Agapetus laniger";0;0;0;0;1;0;0;0;1;7;2;0;8;0;0;2;0;0;0;0;2;6;2;0;1;0;0;0;0;0;1;0;0;0;0;0
"Agapetus ochripes";0;0;0;0;1;0;0;1;5;3;1;0;8;0;0;2;0;0;0;0;5;5;0;1;0;1;1;0;0;0;0;0;0;0;0;0
"Agraylea multipunctata";1;0;0;0;0;0;0;0;0;5;5;0;0;0;0;0;0;0;10;0;3;5;2;0;1;1;0;0;0;1;0;1;0;0;0;0
"Agraylea sexmaculata";1;0;0;0;0;0;0;0;0;5;5;0;0;0;0;0;0;0;10;0;2;6;2;0;1;1;1;1;1;0;1;1;1;0;1;0
"Agrypnia pagetana";1;0;0;0;0;0;0;0;0;0;0;0;0;0;3;1;0;6;0;0;2;6;2;1;0;0;0;0;0;1;0;1;1;0;1;0
"Agrypnia varia";1;0;0;0;0;0;0;0;0;0;0;0;0;0;3;1;0;6;0;0;3;4;3;0;1;1;1;1;1;0;0;0;0;0;1;0
"Allogamus antennatus";0;0;0;0;0;0;0;0;0;0;0;0;0;0;0;0;0;0;0;0;0;0;0;0;0;0;0;0;0;1;0;0;0;0;0;0
"Allogamus mendax";0;0;0;0;1;0;0;0;0;0;0;0;0;0;0;0;0;0;0;0;0;0;10;1;0;0;0;0;0;1;0;0;0;0;0;0
"Allogamus stadleri";0;0;0;0;1;0;0;0;0;0;0;0;0;0;0;0;0;0;0;0;0;0;0;1;0;0;0;0;0;1;0;0;0;0;0;0
"Allotrichia pallicornis";0;0;0;0;1;0;0;0;0;0;0;0;10;0;0;0;0;0;0;0;4;4;2;0;1;0;0;0;0;0;1;0;0;0;0;0
"Alpopsyche ucenorum";0;0;0;0;0;0;0;0;0;0;0;0;0;0;0;0;0;0;0;0;0;0;0;0;0;0;0;0;0;1;0;0;0;0;0;0
"Anabolia brevipennis";1;0;0;0;0;0;0;0;0;0;0;0;2;0;5;0;0;3;0;0;0;8;2;1;0;0;1;0;0;0;0;0;0;0;0;0
"Anabolia furcata";0;1;0;0;0;0;0;0;1;7;2;0;2;0;5;1;0;2;0;0;0;0;0;1;0;0;1;0;0;0;0;0;0;0;0;0
"Anabolia nervosa";0;1;0;0;0;0;0;0;1;7;2;0;2;0;5;1;0;2;0;0;0;1;9;1;0;0;1;1;0;0;0;0;1;1;1;1
"Apatania fimbriata";0;0;0;0;1;0;0;6;4;0;0;0;8;0;0;2;0;0;0;0;0;5;5;0;1;0;0;0;0;1;0;0;0;0;0;0
"Athripsodes albifrons";0;0;0;1;0;0;0;0;0;8;2;0;0;0;5;3;0;2;0;0;0;6;4;1;0;1;1;1;1;0;1;0;1;0;1;0
"Athripsodes aterrimus";1;0;0;0;0;0;0;0;0;6;4;0;0;0;5;3;0;2;0;0;2;6;2;0;1;1;1;1;1;1;0;1;1;1;1;0
"Athripsodes cinereus";0;0;1;0;0;0;0;0;1;7;2;0;0;0;3;3;0;4;0;0;3;4;3;0;1;1;1;1;1;1;1;0;1;1;0;1
"Beraea pullata";0;1;0;0;0;0;0;5;5;0;0;0;2;0;2;6;0;0;0;0;4;6;0;1;0;0;0;0;0;1;0;0;1;0;1;0
"Beraeodes minutus";0;0;0;0;0;0;1;0;0;0;0;0;10;0;0;0;0;0;0;0;2;8;0;1;0;0;1;0;0;0;0;0;1;0;0;1
"Brachycentrus maculatus";0;0;0;0;0;1;0;0;3;5;2;0;2;0;0;1;4;3;0;0;0;4;6;1;0;0;0;0;0;0;1;0;0;0;0;0
"Brachycentrus subnubilus";0;0;0;0;0;0;0;0;0;0;0;0;0;0;0;0;0;0;0;0;0;0;0;0;0;0;0;0;0;0;1;0;0;0;0;0
"Ceraclea albimacula";0;0;1;0;0;0;0;0;1;7;2;0;1;0;0;0;0;0;9;0;0;10;0;1;0;1;0;0;1;1;1;1;0;0;0;0
"Ceraclea annulicornis";0;0;0;0;1;0;0;0;1;7;2;0;0;0;0;0;0;0;0;0;1;9;0;1;0;0;0;0;0;0;1;0;0;0;0;0
"Ceraclea aurea";0;0;0;0;1;0;0;0;0;0;0;0;0;0;0;0;0;0;0;0;0;10;0;1;0;1;0;0;0;0;1;1;0;0;0;0
"Ceraclea dissimilis";0;0;0;0;1;0;0;0;1;7;2;0;0;0;5;5;0;0;0;0;1;6;3;1;0;1;1;0;1;1;1;1;0;0;0;0
"Ceraclea fulva";1;0;0;0;0;0;0;0;1;7;2;0;0;0;0;0;0;0;10;0;1;6;3;0;1;0;0;0;0;0;1;0;0;0;0;0
"Ceraclea nigronervosa";0;0;1;0;0;0;0;0;0;7;3;0;0;0;0;0;0;0;10;0;2;8;0;1;0;0;0;0;0;0;1;0;0;0;0;0
"Ceraclea riparia";1;0;0;0;0;0;0;0;0;0;0;0;0;0;0;0;0;0;0;0;0;8;2;1;0;0;0;0;1;1;1;0;0;0;0;0
"Ceraclea senilis";1;0;0;0;0;0;0;0;0;0;0;0;0;0;0;0;0;0;10;0;0;10;0;0;1;0;0;0;0;0;1;0;0;0;0;0
"Chaetopteryx villosa";0;0;0;0;0;0;0;0;0;0;0;0;0;0;0;0;0;0;0;0;0;0;0;0;0;0;0;0;0;0;0;0;1;0;1;0
"Cheumatopsyche lepida";0;0;0;0;1;0;0;0;1;6;3;0;2;0;0;0;5;3;0;0;1;8;1;0;1;0;0;0;1;1;1;1;1;0;0;0
"Chimarrha marginata";0;0;0;0;0;0;0;0;0;0;0;0;0;0;0;0;0;0;0;0;0;0;0;0;0;0;0;0;0;0;1;0;0;0;0;0
"Crunoecia irrorata";0;0;0;0;0;0;0;0;0;0;0;0;0;0;0;0;0;0;0;0;0;0;0;0;0;0;0;0;0;1;0;0;0;0;0;0
"Cryptothrix nebulicola";0;0;0;0;0;1;0;4;6;0;0;0;2;0;0;0;4;4;0;0;0;5;5;1;0;0;0;0;0;1;0;0;0;0;0;0
"Cyrnus crenaticornis";1;0;0;0;0;0;0;0;0;0;0;0;0;0;0;0;1;9;0;0;0;8;2;1;0;1;0;0;1;1;0;0;0;0;1;0
"Cyrnus flavidus";1;0;0;0;0;0;0;0;0;0;0;0;0;0;0;0;1;9;0;0;0;8;2;1;0;0;0;0;0;0;1;1;1;0;1;0
"Cyrnus trimaculatus";0;1;0;0;0;0;0;0;0;6;4;0;0;0;0;0;1;9;0;0;3;5;2;0;1;0;1;1;1;1;1;1;1;0;0;0
"Drusus annulatus";0;0;0;0;1;0;0;3;7;0;0;0;8;0;1;1;0;0;0;0;0;3;7;1;0;0;0;0;0;1;0;0;0;0;0;0
"Drusus biguttatus";0;0;0;0;0;0;0;0;0;0;0;0;0;0;0;0;0;0;0;0;0;0;0;0;0;0;0;0;0;1;0;0;0;0;0;0
"Drusus discolor";0;0;0;0;1;0;0;3;6;1;0;0;1;0;0;0;4;5;0;0;1;8;1;0;1;0;0;0;0;1;0;0;0;0;0;0
"Drusus melanchaetes";0;0;0;0;1;0;0;0;0;0;0;0;8;0;1;1;0;0;0;0;0;0;0;1;0;0;0;0;0;1;0;0;0;0;0;0
"Drusus mixtus";0;0;0;0;1;0;0;0;0;0;0;0;0;0;0;0;0;0;0;0;0;0;0;0;0;0;0;0;0;1;0;0;0;0;0;0
"Drusus muelleri";0;0;0;0;1;0;0;0;0;0;0;0;2;0;0;0;4;4;0;0;0;0;0;1;0;0;0;0;0;1;0;0;0;0;0;0
"Drusus spelaeus";0;0;0;0;1;0;0;0;0;0;0;0;0;0;0;0;0;0;0;0;0;8;2;1;0;0;0;0;0;1;0;0;0;0;0;0
"Ecnomus tenellus";0;1;0;0;0;0;0;0;0;3;7;0;0;0;0;0;1;9;0;0;2;6;2;0;1;0;0;0;1;1;1;1;1;0;0;0
"Enoicyla pusilla";0;0;0;0;0;0;1;2;6;2;0;0;0;0;0;10;0;0;0;0;0;0;10;1;0;0;0;0;0;1;0;0;0;0;0;0
"Ernodes articularis";0;0;1;0;0;0;0;5;5;0;0;0;0;0;5;5;0;0;0;0;3;7;0;1;0;0;0;0;0;1;0;0;0;0;0;0
"Erotesis baltica";1;0;0;0;0;0;0;0;0;0;0;0;0;0;10;0;0;0;0;0;0;10;0;1;0;0;0;0;0;0;0;0;1;0;0;0
"Glossosoma boltoni";0;0;0;0;1;0;0;0;5;4;1;0;8;0;0;2;0;0;0;0;2;6;2;0;1;1;1;0;1;0;1;0;0;0;0;1
"Glossosoma conformis";0;0;0;0;1;0;0;2;6;2;0;0;8;0;0;2;0;0;0;0;4;5;1;1;0;0;0;0;0;0;1;0;0;0;0;0
"Glyphotaelius pellucidus";0;1;0;0;0;0;0;0;2;4;4;0;1;0;6;0;0;3;0;0;4;6;0;0;1;1;1;1;1;0;0;0;1;1;1;1
"Goera pilosa";0;1;0;0;0;0;0;0;2;5;3;0;9;0;0;1;0;0;0;0;3;6;1;1;0;1;1;1;1;1;1;0;0;0;0;1
"Grammotaulius nigropunctatus";1;0;0;0;0;0;0;0;1;7;2;0;1;0;6;0;0;3;0;0;3;6;1;0;1;1;0;0;0;0;0;0;0;0;0;0
"Halesus rubricollis";0;0;0;1;0;0;0;3;6;1;0;0;1;0;7;0;0;2;0;0;0;5;5;1;0;0;0;0;0;1;0;0;0;0;0;0
"Holocentropus dubius";1;0;0;0;0;0;0;0;0;5;5;0;0;0;0;0;1;9;0;0;0;10;0;1;0;0;0;0;0;1;0;0;1;1;0;0
"Holocentropus picicornis";1;0;0;0;0;0;0;0;0;5;5;0;0;0;0;0;1;9;0;0;0;0;0;0;0;0;0;0;0;1;0;0;1;0;1;0
"Holocentropus stagnalis";1;0;0;0;0;0;0;0;0;5;5;0;0;0;0;0;1;9;0;0;0;0;0;0;0;0;1;1;0;0;0;0;0;0;0;0
"Homilia leucophaea";0;0;0;0;0;0;0;0;0;0;0;0;0;0;0;0;0;0;0;0;0;0;0;0;0;0;0;0;0;0;1;0;0;0;0;0
"Hydropsyche angustipennis";0;0;0;0;0;0;0;0;0;0;0;0;0;0;0;0;0;0;0;0;0;0;0;0;0;0;1;1;1;1;1;1;1;0;0;0
"Hydropsyche contubernalis";0;0;0;0;1;0;0;0;0;2;8;0;0;0;0;1;8;1;0;0;3;4;3;0;1;1;1;1;1;1;1;1;0;0;0;1
"Hydropsyche exocellata";0;0;0;0;1;0;0;0;0;0;0;0;2;0;0;0;5;3;0;0;2;6;2;0;1;1;1;1;1;0;1;1;0;0;0;1
"Hydropsyche fulvipes";0;0;0;0;1;0;0;1;7;2;0;0;2;0;0;0;5;3;0;0;3;5;2;1;0;0;0;0;0;1;0;0;0;0;0;0
"Hydropsyche guttata";0;0;0;0;1;0;0;0;0;0;0;0;2;0;0;0;5;3;0;0;3;4;3;0;1;0;0;1;0;0;0;0;0;0;0;0
"Hydropsyche incognita";0;0;0;0;1;0;0;0;2;5;3;0;2;0;0;0;5;3;0;0;2;6;2;0;1;1;1;1;0;0;0;0;0;0;0;1
"Hydropsyche instabilis";0;0;0;0;1;0;0;1;4;5;0;0;2;0;0;0;5;3;0;0;2;5;3;0;1;0;0;0;0;1;0;0;0;0;0;0
"Hydropsyche modesta";0;0;0;0;1;0;0;0;0;2;8;0;2;0;0;0;5;3;0;0;2;6;2;0;1;1;1;1;1;0;1;1;1;0;0;0
"Hydropsyche ornatula";0;0;0;0;1;0;0;0;0;0;0;0;2;0;0;0;5;3;0;0;3;7;0;1;0;0;0;0;0;0;1;1;0;0;0;0
"Hydropsyche pellucidula";0;0;0;0;1;0;0;0;2;5;3;0;2;0;0;0;5;3;0;0;2;6;2;0;1;1;1;1;1;0;1;1;0;0;0;1
"Hydropsyche siltalai";0;0;0;0;1;0;0;0;2;6;2;0;2;0;0;0;5;3;0;0;0;8;2;0;1;1;1;1;1;1;1;1;1;0;0;1
"Hydropsyche tenuis";0;0;0;0;1;0;0;4;6;0;0;0;2;0;0;0;5;3;0;0;1;8;1;1;0;0;0;0;0;1;0;0;0;0;0;0
"Hydroptila angulata";0;0;1;0;0;0;0;0;1;5;3;1;0;0;0;0;0;0;0;0;2;8;0;0;1;1;0;0;1;0;1;1;0;0;0;0
"Hydroptila forcipata";0;0;0;0;1;0;0;0;1;6;3;0;0;0;0;5;0;0;5;0;3;4;3;0;1;1;0;0;1;0;1;1;0;0;0;0
"Hydroptila lotensis";0;0;1;0;0;0;0;0;0;0;0;0;0;0;0;0;0;0;0;0;4;6;0;0;1;0;0;0;1;0;0;0;0;0;0;0
"Hydroptila occulta";1;0;0;0;0;0;0;0;0;0;0;0;0;0;0;5;0;0;5;0;2;8;0;1;0;0;0;0;0;0;1;0;0;0;0;0
"Hydroptila pulchricornis";1;0;0;0;0;0;0;0;0;0;0;0;5;0;0;0;0;5;0;0;2;7;1;0;1;0;0;0;0;0;1;1;0;0;1;0
"Hydroptila simulans";0;0;1;0;0;0;0;0;0;0;0;0;0;0;0;0;0;0;0;0;2;5;3;1;0;0;0;0;1;0;1;1;0;0;0;0
"Hydroptila sparsa";0;1;0;0;0;0;0;0;0;6;4;0;0;0;0;5;0;0;5;0;2;5;3;0;1;1;0;0;1;0;1;1;1;0;0;0
"Hydroptila tineoides";0;1;0;0;0;0;0;0;0;0;0;0;5;0;0;0;0;5;0;2;3;3;2;0;1;0;0;0;1;0;1;0;0;0;0;0
"Hydroptila vectis";0;0;0;0;1;0;0;0;1;6;3;0;0;0;0;5;0;0;5;1;2;4;3;0;1;1;0;0;1;1;1;1;0;0;0;0
"Ithytrichia lamellaris";0;0;0;1;0;0;0;2;6;2;0;0;10;0;0;0;0;0;0;0;3;6;1;0;1;0;0;0;0;0;1;0;1;0;0;0
"Lepidostoma hirtum";0;0;1;0;0;0;0;0;3;6;1;0;5;3;2;0;0;0;0;0;2;6;2;0;1;1;0;0;1;0;1;1;1;0;1;0
"Leptocerus interruptus";0;1;0;0;0;0;0;0;0;5;5;0;5;0;5;0;0;0;0;0;3;7;0;1;0;0;1;0;0;0;0;0;1;0;0;0
"Leptocerus lusitanicus";0;1;0;0;0;0;0;0;0;0;0;0;0;0;0;0;0;0;0;0;0;0;0;0;0;0;0;0;0;1;1;0;0;0;0;0
"Leptocerus tineiformis";1;0;0;0;0;0;0;0;0;5;5;0;5;0;5;0;0;0;0;0;2;8;0;1;0;1;1;1;1;1;1;0;1;1;0;0
"Limnephilus auricula";0;1;0;0;0;0;0;0;0;0;0;0;2;0;5;0;0;3;0;0;4;2;4;0;1;0;1;1;0;1;1;0;1;0;0;0
"Limnephilus coenosus";1;0;0;0;0;0;0;1;4;5;0;0;2;0;5;0;0;3;0;0;0;5;5;0;1;0;0;0;0;1;0;0;0;0;0;0
"Limnephilus decipiens";1;0;0;0;0;0;0;0;0;7;3;0;2;0;5;0;0;3;0;0;4;2;4;0;1;0;1;0;0;1;0;0;1;1;1;0
"Limnephilus flavicornis";0;1;0;0;0;0;0;0;0;0;0;0;2;0;5;0;0;3;0;0;4;2;4;0;1;0;0;1;1;1;0;0;1;1;1;1
"Limnephilus flavospinosus";0;1;0;0;0;0;0;0;0;0;0;0;0;0;0;0;0;0;0;0;4;2;4;0;1;0;0;0;0;0;0;0;1;1;1;0
"Limnephilus germanus";0;1;0;0;0;0;0;0;0;0;0;0;2;0;5;0;0;3;0;0;0;2;8;0;1;0;1;1;0;0;0;1;0;0;0;1
"Limnephilus griseus";1;0;0;0;0;0;0;0;0;0;0;0;2;0;5;0;0;3;0;0;4;2;4;0;1;0;0;0;0;1;0;0;0;0;0;0
"Limnephilus helveticus";1;0;0;0;0;0;0;0;0;0;0;0;2;0;5;0;0;3;0;0;0;0;0;0;0;0;0;0;1;0;0;0;0;0;0;0
"Limnephilus ignavus";0;1;0;0;0;0;0;0;0;0;0;0;2;0;5;0;0;3;0;0;0;2;8;0;1;0;0;0;0;1;0;0;0;0;0;0
"Limnephilus italicus";1;0;0;0;0;0;0;0;0;0;0;0;2;0;5;0;0;3;0;0;0;0;0;0;0;0;0;0;0;1;0;0;0;0;0;0
"Limnephilus lunatus";0;1;0;0;0;0;0;0;0;0;0;0;2;0;5;0;0;3;0;0;4;2;4;0;1;1;1;1;0;0;0;0;0;1;0;1
"Limnephilus nigriceps";0;1;0;0;0;0;0;0;0;0;0;0;2;0;5;0;0;3;0;0;0;4;6;0;0;0;0;1;0;1;0;0;0;0;0;0
"Limnephilus rhombicus";0;1;0;0;0;0;0;0;2;6;2;0;2;0;5;0;0;3;0;0;4;2;4;0;1;1;1;1;0;0;0;0;1;1;1;1
"Limnephilus sparsus";1;0;0;0;0;0;0;0;0;0;0;0;2;0;5;0;0;3;0;0;3;5;2;0;1;0;0;0;0;1;0;0;0;0;0;0
"Limnephilus stigma";1;0;0;0;0;0;0;0;2;6;2;0;2;0;5;0;0;3;0;0;4;2;4;0;1;0;1;1;0;0;0;0;0;0;0;0
"Limnephilus vittatus";1;0;0;0;0;0;0;0;0;0;0;0;2;0;5;0;0;3;0;0;4;2;4;0;1;0;0;0;1;1;1;0;0;0;0;0
"Lype phaeopa";0;0;0;0;0;0;1;0;0;0;0;0;8;2;0;0;0;0;0;0;3;4;3;0;1;1;0;0;1;0;1;1;1;0;0;0
"Lype reducta";0;0;0;0;0;0;1;0;0;0;0;0;8;2;0;0;0;0;0;1;3;3;3;0;1;1;1;1;0;0;0;0;0;0;0;0
"Melampophylax melampus";0;0;0;0;1;0;0;4;5;1;0;0;2;0;6;0;0;2;0;0;0;0;10;1;0;0;0;0;0;1;0;0;0;0;0;0
"Melampophylax mucoreus";0;0;0;0;1;0;0;3;5;2;0;0;8;0;1;0;0;1;0;1;0;0;9;1;0;0;0;0;0;1;0;0;0;0;0;0
"Mesophylax aspersus";0;0;0;0;0;0;0;0;0;0;0;0;0;0;0;0;0;0;0;0;0;0;0;0;0;0;1;0;0;1;0;0;0;0;0;0
"Mesophylax impunctatus";0;0;0;1;0;0;0;0;0;0;0;0;2;0;6;0;0;2;0;0;2;5;3;1;0;1;1;0;0;0;0;0;0;0;0;1
"Metalype fragilis";0;0;0;0;0;0;0;0;0;0;0;0;0;0;0;0;0;0;0;0;0;0;0;0;0;0;0;0;0;1;1;1;1;0;0;0
"Metanoea flavipennis";0;0;0;0;0;1;0;0;0;0;0;0;0;0;0;0;0;0;0;0;0;7;3;1;0;0;0;0;0;1;0;0;0;0;0;0
"Metanoea malickyi";0;0;0;0;0;1;0;0;0;0;0;0;0;0;0;0;0;0;0;0;0;7;3;1;0;0;0;0;0;1;0;0;0;0;0;0
"Micropterna nycterobia";0;0;0;1;0;0;0;0;0;0;0;0;2;0;6;0;0;2;0;0;2;4;4;0;1;0;1;0;0;0;1;0;0;0;0;0
"Micropterna testacea";0;0;0;1;0;0;0;0;0;0;0;0;2;0;6;0;0;2;0;0;2;4;4;0;1;0;1;0;0;0;1;0;0;0;0;0
"Monocentra lepidoptera";0;0;0;0;1;0;0;0;0;0;0;0;0;0;0;0;0;0;0;1;2;4;3;0;1;0;0;0;0;1;0;0;0;0;0;0
"Mystacides azurea";0;1;0;0;0;0;0;0;1;7;2;0;2;0;2;5;0;1;0;0;2;5;3;0;1;1;1;1;1;1;1;0;1;0;0;1
"Mystacides longicornis";0;1;0;0;0;0;0;0;0;6;4;0;2;0;2;5;0;1;0;0;2;5;3;0;1;1;1;0;0;1;1;0;1;0;0;0
"Mystacides nigra";0;1;0;0;0;0;0;0;1;7;2;0;2;0;2;5;0;1;0;0;0;0;10;0;1;0;0;0;0;0;1;0;0;0;0;0
"Neureclipsis bimaculata";0;0;0;1;0;0;0;0;1;7;2;0;0;0;0;0;1;9;0;0;1;8;1;1;0;0;1;1;0;0;1;1;1;0;0;0
"Odontocerum albicorne";0;0;0;0;1;0;0;1;6;3;0;0;3;0;3;0;0;4;0;0;2;5;3;0;1;0;0;1;0;1;0;0;0;0;0;0
"Oecetis furva";1;0;0;0;0;0;0;0;0;5;5;0;0;0;5;0;0;5;0;0;1;7;2;1;0;0;0;0;1;0;0;1;1;1;1;0
"Oecetis lacustris";1;0;0;0;0;0;0;0;0;7;3;0;0;0;0;0;0;10;0;0;1;7;2;0;1;1;0;0;0;1;1;1;1;0;1;0
"Oecetis notata";0;0;0;1;0;0;0;0;0;0;0;0;0;0;0;0;0;10;0;0;0;0;0;0;0;1;1;1;1;1;1;1;0;0;0;0
"Oecetis ochracea";1;0;0;0;0;0;0;0;0;6;4;0;0;0;0;0;0;10;0;0;1;7;2;0;1;0;1;0;0;1;0;0;0;0;0;0
"Oecetis testacea";0;0;0;0;0;0;1;0;0;0;0;0;0;0;0;0;0;10;0;0;0;10;0;1;0;0;1;0;1;0;0;0;1;0;0;0
"Oecetis tripunctata";0;0;0;0;0;0;0;0;0;0;0;0;0;0;5;0;0;5;0;0;1;9;0;1;0;0;0;0;0;0;1;0;0;0;0;0
"Oligoplectrum maculatum";0;0;0;0;0;0;0;0;0;0;0;0;0;0;0;0;0;0;0;0;0;0;0;0;0;0;0;0;0;0;1;0;0;0;0;0
"Oligostoma reticulata";0;0;0;0;0;0;0;0;0;0;0;0;0;0;0;0;0;0;0;0;0;0;0;0;0;0;0;0;0;1;0;0;0;0;0;0
"Orthotrichia angustella";0;0;0;0;0;0;1;0;0;0;0;0;0;0;0;0;0;0;0;0;0;8;2;1;0;0;0;0;0;0;1;0;0;0;0;0
"Orthotrichia costalis";1;0;0;0;0;0;0;0;2;6;2;0;0;0;0;0;0;0;10;0;1;7;2;0;1;1;0;0;1;0;1;1;1;0;0;0
"Orthotrichia tragetti";1;0;0;0;0;0;0;0;0;0;0;0;0;0;0;0;0;0;0;0;0;10;0;1;0;0;0;0;1;1;0;0;0;0;0;0
"Oxyethira costalis";0;0;0;0;0;0;0;0;0;0;0;0;0;0;0;0;0;0;0;0;0;0;0;0;0;0;0;0;0;0;0;0;1;0;0;0
"Oxyethira flavicornis";0;1;0;0;0;0;0;0;0;8;2;0;0;0;0;0;0;0;10;0;2;5;3;0;1;1;0;0;1;1;1;0;0;0;0;0
"Oxyethira frici";0;1;0;0;0;0;0;0;0;0;0;0;0;0;0;0;0;0;0;0;2;6;2;0;1;0;0;0;0;0;0;1;0;0;0;0
"Oxyethira tristella";0;1;0;0;0;0;0;0;0;0;0;0;0;0;0;0;0;0;0;0;2;8;0;1;0;0;0;0;0;0;0;1;0;0;0;0
"Philopotamus ludificatus";0;0;1;0;0;0;0;5;5;0;0;0;0;0;0;0;10;0;0;0;4;4;2;0;1;0;0;0;0;1;0;0;0;0;0;0
"Philopotamus variegatus";0;0;0;0;0;0;0;0;0;0;0;0;0;0;0;0;0;0;0;0;0;0;0;0;0;0;0;0;0;1;0;0;0;0;0;0
"Phryganea bipunctata";1;0;0;0;0;0;0;0;0;0;0;0;1;0;2;1;0;6;0;0;2;8;0;1;0;1;0;0;0;0;0;0;1;1;0;0
"Phryganea grandis";1;0;0;0;0;0;0;0;0;0;0;0;1;0;2;1;0;6;0;0;5;5;0;1;0;1;0;0;0;1;0;0;0;0;1;0
"Plectrocnemia brevis";0;0;1;0;0;0;0;6;4;0;0;0;0;0;0;0;1;9;0;0;2;6;2;0;1;0;0;0;0;1;0;0;0;0;0;0
"Plectrocnemia conspersa";0;0;0;0;0;0;0;0;0;0;0;0;0;0;0;0;0;0;0;0;0;0;0;0;0;0;1;0;0;1;0;0;1;0;1;0
"Plectrocnemia geniculata";0;0;0;0;0;0;0;0;0;0;0;0;0;0;0;0;0;0;0;0;0;0;0;0;0;0;0;0;0;1;0;0;0;0;0;0
"Plectrocnemia praestans";0;0;1;0;0;0;0;0;0;0;0;0;0;0;0;0;0;0;0;0;0;0;0;0;0;0;0;0;0;1;0;0;0;0;0;0
"Polycentropus excisus";0;0;1;0;0;0;0;2;5;3;0;0;0;0;0;0;1;9;0;0;2;5;3;0;1;0;1;0;0;0;0;0;0;0;0;0
"Polycentropus flavomaculatus";0;0;0;0;0;0;0;0;0;0;0;0;0;0;0;0;0;0;0;0;0;0;0;0;0;0;1;1;0;1;1;1;1;0;1;0
"Polycentropus irroratus";0;0;1;0;0;0;0;1;4;4;1;0;0;0;0;0;1;9;0;0;2;6;2;0;0;0;0;0;0;0;0;1;1;0;0;0
"Potamophylax cingulatus";0;0;0;0;0;0;0;0;0;0;0;0;0;0;0;0;0;0;0;0;0;0;0;0;0;0;0;0;0;1;0;0;0;0;0;0
"Potamophylax latipennis";0;0;0;1;0;0;0;1;5;4;0;0;2;0;6;0;0;2;0;0;0;6;4;0;1;1;0;0;0;1;0;0;0;0;0;0
"Poycentropus flavomaculatus";0;0;0;0;0;0;0;0;0;0;0;0;0;0;0;0;0;0;0;0;0;0;0;0;0;0;0;0;1;0;0;0;0;0;0;0
"Pseudopsilopteryx zimmeri";0;0;1;0;0;0;0;5;4;1;0;0;2;0;6;0;0;2;0;0;0;0;0;1;0;0;1;0;0;1;0;0;0;0;0;0
"Pseudosilopteryx zimmeri";0;0;0;0;0;0;0;0;0;0;0;0;0;0;0;0;0;0;0;0;0;0;0;0;0;0;0;0;0;1;0;0;0;0;0;0
"Psychomyia pusilla";0;0;0;1;0;0;0;0;2;5;3;0;6;0;0;2;1;1;0;0;2;5;3;0;1;1;1;1;1;1;1;1;1;0;0;1
"Ptilocolepus granulatus";0;0;0;0;0;0;0;0;0;0;0;0;0;0;0;0;0;0;0;0;0;0;0;0;0;0;0;0;0;1;0;0;0;0;0;0
"Rhyacophila dorsalis";0;0;0;0;0;1;0;0;2;6;2;0;0;0;0;0;0;10;0;0;1;7;2;0;1;1;0;0;1;1;1;1;0;0;0;0
"Rhyacophila fasciata";0;0;0;0;0;1;0;2;4;4;0;0;0;0;0;0;0;10;0;1;3;4;2;0;1;1;0;0;1;1;0;0;0;0;0;0
"Rhyacophila intermedia";0;0;0;0;0;1;0;5;5;0;0;0;0;0;0;0;0;10;0;0;0;6;4;0;1;0;0;0;0;1;0;0;0;0;0;0
"Rhyacophila laevis";0;0;0;0;0;1;0;4;6;0;0;0;0;0;10;0;0;0;0;0;3;7;0;1;0;0;0;0;0;1;0;0;0;0;0;0
"Rhyacophila pascoei";0;0;0;0;0;1;0;0;2;6;2;0;0;0;0;0;0;10;0;0;0;0;0;1;0;0;0;0;0;0;1;1;0;0;0;0
"Rhyacophila philopotamoides";0;0;0;0;0;1;0;0;0;0;0;0;0;0;0;0;0;10;0;0;0;8;2;1;0;0;0;0;0;1;0;0;0;0;0;0
"Rhyacophila praemorsa";0;0;0;0;0;1;0;4;6;0;0;0;0;0;0;0;0;10;0;0;0;8;2;1;0;0;0;0;0;1;0;0;0;0;0;0
"Rhyacophila pubescens";0;0;0;0;0;1;0;7;3;0;0;0;0;0;0;0;0;10;0;0;2;6;2;1;0;0;0;0;0;1;0;0;0;0;0;0
"Rhyacophila torrentium";0;0;0;0;0;1;0;2;5;3;0;0;0;0;0;0;0;10;0;0;0;0;0;0;1;0;0;0;0;1;0;0;0;0;0;0
"Rhyacophila tristis";0;0;0;0;0;1;0;2;3;4;1;0;1;0;1;0;0;8;0;0;3;4;3;0;1;0;0;0;0;1;0;0;0;0;0;0
"Rhyacophila vulgaris";0;0;0;0;0;1;0;3;4;3;0;0;0;0;0;0;0;10;0;0;0;3;7;1;0;0;0;0;0;1;0;0;0;0;0;0
"Sericostoma flavicorne";0;0;1;0;0;0;0;1;3;5;1;0;0;0;9;0;0;1;0;0;2;6;2;0;1;0;0;0;0;1;0;0;0;0;0;0
"Sericostoma galeatum";1;0;0;0;0;0;0;0;0;0;0;0;0;0;0;0;0;0;0;0;0;0;0;0;0;1;0;0;0;0;0;0;0;0;0;0
"Sericostoma personatum";0;0;1;0;0;0;0;3;4;3;0;0;0;0;9;0;0;1;0;0;2;6;2;0;1;0;0;0;0;1;1;0;0;0;0;0
"Setodes argentipunctellus";0;0;1;0;0;0;0;0;0;0;0;0;0;0;0;0;0;0;0;0;2;6;2;1;0;0;0;0;0;0;1;0;1;0;1;0
"Setodes argipunctellus";0;0;0;0;0;0;0;0;0;0;0;0;0;0;0;0;0;0;0;0;0;0;0;0;0;0;0;0;1;0;0;0;0;0;0;0
"Setodes punctatus";0;0;0;0;1;0;0;0;0;0;0;0;0;0;0;0;0;0;0;0;0;8;2;1;0;1;0;0;0;0;1;1;0;0;0;0
"Silo nigricornis";0;0;0;0;1;0;0;1;3;5;1;0;9;0;0;1;0;0;0;0;2;6;2;0;1;1;1;1;1;1;0;0;1;0;0;1
"Silo piceus";0;0;0;0;1;0;0;0;0;0;0;0;9;0;0;1;0;0;0;0;3;7;0;1;0;0;1;1;0;0;0;0;0;0;0;0
"Stactobiella risi";0;0;0;0;1;0;0;0;0;0;0;0;0;0;0;0;0;0;0;0;0;10;0;1;0;0;0;0;0;0;1;0;0;0;0;0
"Stenophylax permistus";0;0;0;1;0;0;0;0;0;0;0;0;0;0;5;5;0;0;0;0;3;4;3;0;1;0;0;0;1;0;1;0;0;0;0;0
"Synagapetus dubitans";0;0;0;1;0;0;0;7;3;0;0;0;8;0;0;2;0;0;0;0;0;0;0;0;0;0;0;0;1;0;0;0;1;0;0;0
"Tinodes assimilis";0;0;0;0;1;0;0;0;0;0;0;0;8;0;0;1;1;0;0;0;3;5;2;0;1;0;0;0;0;0;0;0;0;0;0;1
"Tinodes dives";0;0;0;0;0;0;0;0;0;0;0;0;0;0;0;0;0;0;0;0;0;0;0;0;0;0;0;0;0;1;0;1;0;0;0;0
"Tinodes waeneri";0;1;0;0;0;0;0;0;1;6;3;0;7;0;0;1;1;1;0;0;4;4;2;0;1;1;1;0;1;1;1;1;0;0;0;1
"Triaenodes bicolor";1;0;0;0;0;0;0;0;0;5;5;0;5;0;5;0;0;0;0;0;2;6;2;0;1;0;0;0;0;1;0;0;0;0;0;0
"Trianodes bicolor";0;0;0;0;0;0;0;0;0;0;0;0;0;0;0;0;0;0;0;0;0;0;0;0;0;0;0;0;0;0;0;0;1;0;1;0
"Trichostegia minor";1;0;0;0;0;0;0;0;0;0;0;0;3;0;2;1;0;4;0;0;0;10;0;0;1;1;0;1;1;0;0;0;0;0;0;0
"Wormaldia copiosa";0;0;0;0;0;0;0;0;0;0;0;0;0;0;0;0;0;0;0;0;0;0;0;0;0;0;0;0;0;1;0;0;0;0;0;0
"Wormaldia occipitalis";0;0;0;0;0;0;0;0;0;0;0;0;0;0;0;0;0;0;0;0;0;0;0;0;0;0;0;0;0;1;0;0;0;0;0;0
